Data Exploration: MSK-CHORD and MSK-MET
…
2. Missing Data

msk_chord |> 
  summarise(across(everything(), ~ sum(is.na(.)))) |> 
  pivot_longer(everything(), names_to = "variable", values_to = "n_missing") |>
  arrange(desc(n_missing))

# A tibble: 53 × 2
   variable                             n_missing
   <chr>                                    <int>
 1 gleason_score_reported_on_sample_nlp     22930
 2 gleason_score_1st_reported_nlp           21768
 3 gleason_score_highest_reported_nlp       21768
 4 sample_pd_l1_positive_nlp                21514
 5 her2                                     19648
 6 hr                                       19648
 7 history_for_positive_pd_l1_nlp           17989
 8 metastatic_site                          16206
 9 pathological_group                        7273
10 msi_comment                               5697
# ℹ 43 more rows
…
2. Missing Data

msk_met |> 
  summarise(across(everything(), ~ sum(is.na(.)))) |> 
  pivot_longer(everything(), names_to = "variable", values_to = "n_missing") |>
  arrange(desc(n_missing))

# A tibble: 55 × 2
   variable                  n_missing
   <chr>                         <int>
 1 age_at_death                  15752
 2 metastatic_site               15632
 3 age_at_last_contact           10129
 4 age_at_first_mets_dx           6137
 5 mutation_count                 1022
 6 age_at_surgical_procedure       822
 7 tumor_purity                    407
 8 age_at_sequencing               258
 9 overall_survival_months         116
10 race_category                    77
# ℹ 45 more rows
…
Which primary tumor tends to metastasize to the CNS

next we are searching in the MSK-MET data set for all the samples of metastatic tumors that lie in the CNS/Brain and then see if we find primary tumors that are more likely to spread to the CNS then others.

We start with the count:

# get the counts of metastasis samples per primary tumor site. I included multiple samples per patient since they are separate metastasis events, but if you ant to exclude them just uncomment below
cns_met_counts <- msk_met |>
  filter(metastatic_site == "CNS/Brain") |>
  #distinct(patient_id, primary_tumor_site) |>
  count(primary_tumor_site, sort = TRUE)

cns_met_counts

# A tibble: 40 × 2
   primary_tumor_site            n
   <chr>                     <int>
 1 Lung                        207
 2 Breast                       42
 3 Skin                         34
 4 Unknown                      16
 5 Prostate                     13
 6 Cancer of Unknown Primary    11
 7 Colon                        11
 8 Ovary                        11
 9 Kidney                        8
10 Testis                        8
# ℹ 30 more rows
…
cns_rate <- msk_met |>
  # distinct(patient_id, primary_tumor_site, metastatic_site) |>
  mutate(cns = metastatic_site == "CNS/Brain") |>
  group_by(primary_tumor_site) |>
  summarise(
    total_patients = n_distinct(patient_id),
    cns_patients = n_distinct(patient_id[cns]),
    cns_rate = cns_patients / total_patients
  ) |>
  arrange(desc(cns_rate))

cns_rate

# A tibble: 190 × 4
   primary_tumor_site     total_patients cns_patients cns_rate
   <chr>                           <int>        <int>    <dbl>
 1 Anorectal Junction                  1            1        1
 2 Base of Tongue                      1            1        1
 3 Bile duct                           1            1        1
 4 Biliary Tract                       1            1        1
 5 Blood Vessel                        1            1        1
 6 Buccal                              1            1        1
 7 Buccal Mucosa                       1            1        1
 8 Ear Canal                           1            1        1
 9 Ectopic Embryonic Rest              1            1        1
10 Endome                              1            1        1
# ℹ 180 more rows
…
# A tibble: 2 × 2
  sample_type     n
  <chr>       <int>
1 Metastasis   1050
2 Primary      1562

# number of primary and metastatic tumors by tumor type
msk_met |>
  count(cancer_type, sample_type)

# A tibble: 54 × 3
   cancer_type        sample_type     n
   <chr>              <chr>       <int>
 1 Anal Cancer        Metastasis     35
 2 Anal Cancer        Primary        52
 3 Appendiceal Cancer Metastasis    114
 4 Appendiceal Cancer Primary        88
 5 Bladder Cancer     Metastasis    243
 6 Bladder Cancer     Primary       915
 7 Breast Cancer      Metastasis   1048
 8 Breast Cancer      Primary      1561
 9 Cervical Cancer    Metastasis     37
10 Cervical Cancer    Primary        66
# ℹ 44 more rows
…
gene_freq <- gene_freq |>
  mutate(freq = mutated_samples / total_samples)

gene_freq_wide <- gene_freq |>
  select(Hugo_Symbol, sample_type, freq) |>
  pivot_wider(
    names_from = sample_type,
    values_from = freq
  )

gene_freq_wide

# A tibble: 464 × 3
   Hugo_Symbol Metastasis   Primary
   <chr>            <dbl>     <dbl>
 1 ABL1          0.00763   0.00320 
 2 AC008738.1    0.000954 NA       
 3 ACVR1         0.00382   0.000641
 4 AGO2          0.00286   0.00448 
 5 AKT1          0.0544    0.0480  
 6 AKT2          0.00477   0.00192 
 7 AKT3          0.00477   0.00128 
 8 ALK           0.0162    0.00961 
 9 ALOX12B       0.00382   0.00512 
10 AMER1         0.00859   0.00448 
# ℹ 454 more rows
…
